age	chi.utt	chi.mtok	chi.mtyp	mot.utt	mot.mtok	mot.mtyp
2;00	4696	6835	395	8835	47853	1764
2;01	10647	15032	519	20675	117645	2682
2;02	9136	15207	687	18036	113079	2870
2;03	10355	18047	913	17452	106405	2682
2;04	12604	23998	1122	19631	119000	2979
2;05	8741	16683	1093	14175	84744	2777
2;06	10592	19612	1202	15936	97186	2912
2;07	12759	26344	1507	17600	107140	3183
2;08	8682	19688	1403	12411	75705	2742
2;09	14614	35474	1770	21139	129818	3797
2;10	10725	28937	1672	15900	102094	3273
2;11	8802	24708	1615	15627	99266	3409
3;00	9330	25085	1618	15766	97888	3717
3;01	10741	29258	1738	18453	111957	3679
3;02	5830	15414	1309	7596	44342	2394
3;03	3217	9819	1016	5007	30897	1960
3;04	3285	10590	987	4955	28431	1716
3;05	2611	8922	865	3574	21833	1590
3;06	3194	11805	945	4498	28824	1866
3;07	2846	11093	894	4113	25562	1725
3;08	2315	8271	907	4055	24350	1632
3;09	2476	8646	935	3969	27396	1796
3;10	2145	7853	918	3692	24534	1651
3;11	1942	7067	775	3442	22040	1479
