reaction.time;condition
641;control
565;control
524;control
658;control
693;control
562;control
575;control
559;control
699;control
706;control
731;control
734;control
804;control
640;control
637;control
868;control
535;control
813;control
827;control
807;control
700;control
538;control
818;control
433;control
626;control
671;control
653;control
761;control
762;control
570;control
612;patient
620;patient
691;patient
543;patient
701;patient
789;patient
763;patient
752;patient
728;patient
485;patient
583;patient
720;patient
620;patient
802;patient
870;patient
904;patient
468;patient
618;patient
514;patient
936;patient
796;patient
776;patient
660;patient
692;patient
583;patient
772;patient
649;patient
703;patient
643;patient
576;patient
798;patient2
704;patient2
778;patient2
686;patient2
713;patient2
703;patient2
708;patient2
816;patient2
774;patient2
739;patient2
761;patient2
700;patient2
687;patient2
691;patient2
662;patient2
718;patient2
690;patient2
649;patient2
694;patient2
769;patient2
820;patient2
791;patient2
745;patient2
801;patient2
732;patient2
667;patient2
732;patient2
769;patient2
764;patient2
769;patient2
